…
3.  New `R` types to support consistent formatting in `Excel`.

### Data: clothes_opinions

To explore how to analyse complex data we’ll use the dataset
`clothes_opinions`. This dataset contains fake survey data with peoples
opinions on clothes as well as a series of demographic characteristics.
It is documented in
[`?clothes_opinions`](https://nhilder.github.io/xlr/reference/clothes_opinions.md).

``` r
dim(clothes_opinions)
#> [1] 1000   20
clothes_opinions
#> # A tibble: 1,000 × 20
#>   weight group gender gender2      age age_group Q1_1    Q1_2    Q1_3    Q1_4   
#>    <int> <chr> <chr>  <dbl+lbl>  <int> <chr>     <int+l> <int+l> <int+l> <int+l>
#> 1   1072 a     female 2 [female]    25 18-30     1 [Str… 5 [Str… 5 [Str… 2 [Dis…
#> 2    219 a     female 2 [female]    64 51-65     3 [Neu… 1 [Str… 2 [Dis… 2 [Dis…
#> 3   1187 a     male   1 [male]      35 31-40     4 [Agr… 3 [Neu… 5 [Str… 1 [Str…
#> 4   1860 a     male   1 [male]      55 51-65     4 [Agr… 1 [Str… 2 [Dis… 2 [Dis…
#> # ℹ 996 more rows
#> # ℹ 10 more variables: Q2_1 <chr>, Q2_2 <chr>, Q2_3 <chr>, Q2_4 <chr>,
#> #   Q2_5 <chr>, Q2_6 <chr>, Q3_1 <dbl+lbl>, Q3_2 <dbl+lbl>, Q3_3 <dbl+lbl>,
#> #   Q3_other <chr>
```
…
#### build_mtable()

This function is design to analyse multiple response questions in survey
data. To do so the data must be **wide data** with *one* response per
column (and the remaining responses NA). This is how Qualtrics exports
this data by default. The format is shown below:

``` r
clothes_opinions |>
  dplyr::select(starts_with("Q2"))
#> # A tibble: 1,000 × 6
#>   Q2_1  Q2_2  Q2_3  Q2_4  Q2_5  Q2_6 
#>   <chr> <chr> <chr> <chr> <chr> <chr>
#> 1 Red   NA    NA    Blue  Black Grey 
#> 2 Red   NA    NA    NA    Black NA   
#> 3 Red   NA    Green NA    Black Grey 
#> 4 Red   NA    NA    NA    Black NA   
#> # ℹ 996 more rows
```
…
The `N_group` is the number of people in each age_group that responded
to one of the options in age_group. `N` is the number of people that
responded to the multiple response question in each group.

#### build_qtable()

This function is designed to help analyse a block of questions. A block
of questions is where all the responses use the same scale (it is
usually a matrix question). The data should have the form:

``` r
clothes_opinions |>
  dplyr::select(starts_with("Q1"))
#> # A tibble: 1,000 × 4
#>   Q1_1                  Q1_2                  Q1_3               Q1_4           
#>   <int+lbl>             <int+lbl>             <int+lbl>          <int+lbl>      
#> 1 1 [Strongly Disagree] 5 [Strongly Agree]    5 [Strongly Agree] 2 [Disagree]   
#> 2 3 [Neutral]           1 [Strongly Disagree] 2 [Disagree]       2 [Disagree]   
#> 3 4 [Agree]             3 [Neutral]           5 [Strongly Agree] 1 [Strongly Di…
#> 4 4 [Agree]             1 [Strongly Disagree] 2 [Disagree]       2 [Disagree]   
#> # ℹ 996 more rows
```
…
